<?xml version="1.0" encoding="UTF-8" standalone="no"?>
<svg
   xmlns:dc="http://purl.org/dc/elements/1.1/"
   xmlns:cc="http://creativecommons.org/ns#"
   xmlns:rdf="http://www.w3.org/1999/02/22-rdf-syntax-ns#"
   xmlns:svg="http://www.w3.org/2000/svg"
   xmlns="http://www.w3.org/2000/svg"
   viewBox="1090 1080 940 1"
   height="1320.6667"
   width="2666.6667"
   xml:space="preserve"
   id="svg2"
   version="1.1"><metadata
     id="metadata8"><rdf:RDF><cc:Work
         rdf:about=""><dc:format>image/svg+xml</dc:format><dc:type
           rdf:resource="http://purl.org/dc/dcmitype/StillImage" /></cc:Work></rdf:RDF></metadata><defs
     id="defs6"><clipPath
       id="clipPath18"
       clipPathUnits="userSpaceOnUse"><path
         id="path16"
         d="M 0,2000 H 2000 V 0 H 0 Z" /></clipPath></defs><g
     transform="matrix(1.3333333,0,0,-1.3333333,0,2666.6667)"
     id="g10"><g
       id="g12"><g
         clip-path="url(#clipPath18)"
         id="g14">
         <!-- top_eye_lid -->
          <g
           transform="translate(1160.6436,1360.2388)"
           id="g20">
           <path
             id="path22"
             style="fill:#f8f8f8;fill-opacity:1;fill-rule:nonzero;stroke:none"
             d="m 0,0 c 16.592,-0.304 33.024,-2.003 49.425,-5.116 26.518,-5.029 51.547,-14.515 75.694,-26.945 32.715,-16.841 61.45,-39.825 88.801,-65.158 16.591,-15.374 34.604,-28.927 54.526,-39.103 23.366,-11.944 48.049,-18.304 74.036,-18.273 9.196,0.009 12.307,-6.17 11.099,-14.397 -0.731,-5.002 -4.634,-8.432 -9.527,-8.768 -11.789,-0.814 -23.52,0.336 -35.064,2.494 -20.636,3.857 -40.135,11.498 -58.571,22.189 -21.603,12.525 -40.992,28.308 -59.456,45.554 -20.359,19.018 -42.479,35.346 -66.308,49.093 -17.414,10.05 -35.718,17.705 -54.527,23.92 -8.899,2.935 -18.149,4.739 -27.386,6.52 -14.202,2.739 -28.454,4.229 -42.824,4.22 -17.437,-0.009 -34.664,-2.185 -51.778,-6.024 -14.206,-3.189 -28.105,-7.369 -41.624,-12.83 -26.447,-10.676 -51.048,-25.142 -73.768,-43.142 -11.408,-9.041 -22.78,-18.123 -34.497,-26.705 -17.84,-13.066 -36.095,-25.423 -54.808,-37.022 -11.331,-7.019 -22.735,-13.884 -34.428,-20.176 -10.318,-5.552 -20.735,-10.913 -31.212,-16.115 -5.029,-2.498 -10.345,-0.459 -13.366,4.543 -3.362,5.566 -2.898,10.073 1.508,14.725 3.139,3.316 7.32,4.67 11.167,6.551 23.847,11.653 46.6,25.456 69.034,39.894 28.036,18.045 54.577,38.403 80.891,59.147 14.439,11.385 30.193,20.617 46.381,28.877 15.92,8.114 32.262,15.06 49.311,20.153 14.262,4.257 28.705,7.633 43.342,9.522 C -22.716,-0.922 -11.412,0.795 0,0" /></g>
             <!-- bottom eye lid -->
             <g
           transform="translate(1136.2314,1017.311)"
           id="g24"><path
             id="path26"
             style="fill:#f8f8f8;fill-opacity:1;fill-rule:nonzero;stroke:none"
             d="m 0,0 c -18.036,-0.272 -33.247,0.781 -48.517,3.312 -34.155,5.665 -65.448,19.027 -95.183,37.358 -13.798,8.505 -26.791,18.223 -39.43,28.495 -15.483,12.58 -30.821,25.369 -46.014,38.344 -11.498,9.814 -24.482,16.479 -38.126,21.899 -3.221,1.281 -6.451,2.634 -9.786,3.43 -6.092,1.449 -9.618,9.354 -7.932,14.901 2.094,6.887 8.196,9.982 15.06,7.746 22.684,-7.401 43.356,-18.709 61.669,-35.055 17.692,-15.792 35.773,-31.138 54.8,-45.036 14.302,-10.45 29.23,-19.908 45.073,-27.754 17.232,-8.533 35.046,-14.907 53.495,-19.173 21.74,-5.029 43.847,-5.828 66.008,-4.783 12.285,0.577 24.47,2.157 36.646,4.134 18.885,3.066 37.285,8.105 55.19,14.979 10.054,3.857 19.917,8.346 29.585,13.429 13.734,7.224 27.082,15.088 40.23,23.411 14.27,9.028 27.881,19.132 41.656,28.963 16.391,11.698 33.024,22.997 50.584,32.552 16.146,8.791 33.288,14.856 51.129,18.454 8.445,1.704 13.161,-0.791 15.419,-7.773 1.781,-5.498 -0.127,-10.595 -4.861,-13.384 -2.971,-1.75 -6.301,-2.468 -9.477,-3.076 -17.164,-3.29 -33.011,-10.277 -48.272,-18.981 C 251.023,106.169 234.142,94.148 217.309,82.027 194.443,65.558 171.196,49.729 146.391,36.718 121.389,23.606 95.343,13.598 68.048,7.651 44.736,2.576 21.249,-1.136 0,0" /></g>
             <!-- eye ball -->
             <g
           transform="translate(1143.9375,1307.563)"
           id="g28"><path
             id="path30"
             style="fill:#f8f8f8;fill-opacity:1;fill-rule:nonzero;stroke:none"
             d="m 0,0 c 25.219,0.8 48.339,-6.501 69.143,-21.494 22.474,-16.2 37.726,-38.185 45.204,-66.371 3.975,-14.988 4.462,-30.189 2.703,-45.218 -2.308,-19.704 -9.527,-37.64 -21.048,-53.568 -13.453,-18.605 -30.439,-31.93 -50.812,-40.348 -7.691,-3.176 -15.71,-5.18 -23.919,-6.697 -14.111,-2.603 -28.109,-2.208 -42.006,0.472 -13.076,2.517 -25.451,7.537 -37.032,14.67 -12.048,7.42 -23.074,16.519 -31.633,28.018 -8.337,11.203 -14.939,23.784 -19.341,37.708 -5.138,16.261 -5.869,32.743 -4.439,49.43 1.059,12.371 4.671,24.179 9.891,35.333 9.418,20.112 22.975,36.458 40.716,48.389 12.844,8.641 26.75,14.883 41.988,17.604 C -13.716,-0.845 -6.896,-0.291 0,0 m 2.085,-23.502 c -4.738,-0.277 -9.477,0.177 -14.129,-0.795 -16.273,-3.403 -31.534,-9.186 -44.932,-20.176 -20.93,-17.169 -32.157,-39.862 -34.733,-67.625 -1.149,-12.385 1.109,-24.451 5.007,-36.036 5.697,-16.915 15.429,-30.976 28.731,-41.893 11.808,-9.691 25.096,-16.274 39.793,-19.563 17.619,-3.939 34.915,-2.685 51.888,3.335 16.328,5.788 30.185,15.674 41.488,29.639 9.61,11.872 15.929,25.574 18.927,40.775 2.086,10.549 2.19,21.303 0.536,32.175 -2.866,18.827 -10.317,35.051 -22.606,48.639 -19.086,21.108 -42.611,31.294 -69.97,31.525" /></g></g></g></g></svg>