<?xml version="1.0" encoding="UTF-8" standalone="no"?>
<svg
   xmlns:dc="http://purl.org/dc/elements/1.1/"
   xmlns:cc="http://creativecommons.org/ns#"
   xmlns:rdf="http://www.w3.org/1999/02/22-rdf-syntax-ns#"
   xmlns:svg="http://www.w3.org/2000/svg"
   xmlns="http://www.w3.org/2000/svg"
   viewBox="900 1090 1305 1"
   height="2066.6667"
   width="2666.6667"
   xml:space="preserve"
   id="svg2"
   version="1.1"><metadata
     id="metadata8"><rdf:RDF><cc:Work
         rdf:about=""><dc:format>image/svg+xml</dc:format><dc:type
           rdf:resource="http://purl.org/dc/dcmitype/StillImage" /></cc:Work></rdf:RDF></metadata><defs
     id="defs6"><clipPath
       id="clipPath18"
       clipPathUnits="userSpaceOnUse"><path
         id="path16"
         d="M 0,2000 H 2000 V 0 H 0 Z" /></clipPath></defs><g
     transform="matrix(1.3333333,0,0,-1.3333333,0,2666.6667)"
     id="g10"><g
       id="g12"><g
         clip-path="url(#clipPath18)"
         id="g14"><g
           transform="translate(1160.6436,1360.2388)"
           id="g20"><path
             id="path22"
             style="fill:#1c1c1c;fill-opacity:1;fill-rule:nonzero;stroke:none"
             d="m 0,0 c 16.592,-0.304 33.024,-2.003 49.425,-5.116 26.518,-5.029 51.547,-14.515 75.694,-26.945 32.715,-16.841 61.45,-39.825 88.801,-65.158 16.591,-15.374 34.604,-28.927 54.526,-39.103 23.366,-11.944 48.049,-18.304 74.036,-18.273 9.196,0.009 12.307,-6.17 11.099,-14.397 -0.731,-5.002 -4.634,-8.432 -9.527,-8.768 -11.789,-0.814 -23.52,0.336 -35.064,2.494 -20.636,3.857 -40.135,11.498 -58.571,22.189 -21.603,12.525 -40.992,28.308 -59.456,45.554 -20.359,19.018 -42.479,35.346 -66.308,49.093 -17.414,10.05 -35.718,17.705 -54.527,23.92 -8.899,2.935 -18.149,4.739 -27.386,6.52 -14.202,2.739 -28.454,4.229 -42.824,4.22 -17.437,-0.009 -34.664,-2.185 -51.778,-6.024 -14.206,-3.189 -28.105,-7.369 -41.624,-12.83 -26.447,-10.676 -51.048,-25.142 -73.768,-43.142 -11.408,-9.041 -22.78,-18.123 -34.497,-26.705 -17.84,-13.066 -36.095,-25.423 -54.808,-37.022 -11.331,-7.019 -22.735,-13.884 -34.428,-20.176 -10.318,-5.552 -20.735,-10.913 -31.212,-16.115 -5.029,-2.498 -10.345,-0.459 -13.366,4.543 -3.362,5.566 -2.898,10.073 1.508,14.725 3.139,3.316 7.32,4.67 11.167,6.551 23.847,11.653 46.6,25.456 69.034,39.894 28.036,18.045 54.577,38.403 80.891,59.147 14.439,11.385 30.193,20.617 46.381,28.877 15.92,8.114 32.262,15.06 49.311,20.153 14.262,4.257 28.705,7.633 43.342,9.522 C -22.716,-0.922 -11.412,0.795 0,0" /></g><g
           transform="translate(1136.2314,1017.311)"
           id="g24"><path
             id="path26"
             style="fill:#1c1c1c;fill-opacity:1;fill-rule:nonzero;stroke:none"
             d="m 0,0 c -18.036,-0.272 -33.247,0.781 -48.517,3.312 -34.155,5.665 -65.448,19.027 -95.183,37.358 -13.798,8.505 -26.791,18.223 -39.43,28.495 -15.483,12.58 -30.821,25.369 -46.014,38.344 -11.498,9.814 -24.482,16.479 -38.126,21.899 -3.221,1.281 -6.451,2.634 -9.786,3.43 -6.092,1.449 -9.618,9.354 -7.932,14.901 2.094,6.887 8.196,9.982 15.06,7.746 22.684,-7.401 43.356,-18.709 61.669,-35.055 17.692,-15.792 35.773,-31.138 54.8,-45.036 14.302,-10.45 29.23,-19.908 45.073,-27.754 17.232,-8.533 35.046,-14.907 53.495,-19.173 21.74,-5.029 43.847,-5.828 66.008,-4.783 12.285,0.577 24.47,2.157 36.646,4.134 18.885,3.066 37.285,8.105 55.19,14.979 10.054,3.857 19.917,8.346 29.585,13.429 13.734,7.224 27.082,15.088 40.23,23.411 14.27,9.028 27.881,19.132 41.656,28.963 16.391,11.698 33.024,22.997 50.584,32.552 16.146,8.791 33.288,14.856 51.129,18.454 8.445,1.704 13.161,-0.791 15.419,-7.773 1.781,-5.498 -0.127,-10.595 -4.861,-13.384 -2.971,-1.75 -6.301,-2.468 -9.477,-3.076 -17.164,-3.29 -33.011,-10.277 -48.272,-18.981 C 251.023,106.169 234.142,94.148 217.309,82.027 194.443,65.558 171.196,49.729 146.391,36.718 121.389,23.606 95.343,13.598 68.048,7.651 44.736,2.576 21.249,-1.136 0,0" /></g><g
           transform="translate(1143.9375,1307.563)"
           id="g28"><path
             id="path30"
             style="fill:#1c1c1c;fill-opacity:1;fill-rule:nonzero;stroke:none"
             d="m 0,0 c 25.219,0.8 48.339,-6.501 69.143,-21.494 22.474,-16.2 37.726,-38.185 45.204,-66.371 3.975,-14.988 4.462,-30.189 2.703,-45.218 -2.308,-19.704 -9.527,-37.64 -21.048,-53.568 -13.453,-18.605 -30.439,-31.93 -50.812,-40.348 -7.691,-3.176 -15.71,-5.18 -23.919,-6.697 -14.111,-2.603 -28.109,-2.208 -42.006,0.472 -13.076,2.517 -25.451,7.537 -37.032,14.67 -12.048,7.42 -23.074,16.519 -31.633,28.018 -8.337,11.203 -14.939,23.784 -19.341,37.708 -5.138,16.261 -5.869,32.743 -4.439,49.43 1.059,12.371 4.671,24.179 9.891,35.333 9.418,20.112 22.975,36.458 40.716,48.389 12.844,8.641 26.75,14.883 41.988,17.604 C -13.716,-0.845 -6.896,-0.291 0,0 m 2.085,-23.502 c -4.738,-0.277 -9.477,0.177 -14.129,-0.795 -16.273,-3.403 -31.534,-9.186 -44.932,-20.176 -20.93,-17.169 -32.157,-39.862 -34.733,-67.625 -1.149,-12.385 1.109,-24.451 5.007,-36.036 5.697,-16.915 15.429,-30.976 28.731,-41.893 11.808,-9.691 25.096,-16.274 39.793,-19.563 17.619,-3.939 34.915,-2.685 51.888,3.335 16.328,5.788 30.185,15.674 41.488,29.639 9.61,11.872 15.929,25.574 18.927,40.775 2.086,10.549 2.19,21.303 0.536,32.175 -2.866,18.827 -10.317,35.051 -22.606,48.639 -19.086,21.108 -42.611,31.294 -69.97,31.525" /></g><g
           transform="translate(727.2109,966.9189)"
           id="g32"><path
             id="path34"
             style="fill:#231f20;fill-opacity:1;fill-rule:nonzero;stroke:none"
             d="M 0,0 16.65,-11.976 47.508,30.921 90.804,-0.223 59.947,-43.119 76.602,-55.095 145.018,40.021 128.362,52.001 101.149,14.166 57.853,45.305 85.066,83.14 68.416,95.121 Z m 214.814,-8.437 c 23.797,-8.009 26.678,-32.356 19.504,-53.664 -7.173,-21.307 -24.197,-38.948 -47.994,-30.938 -23.792,8.014 -26.678,32.36 -19.499,53.668 7.174,21.303 24.197,38.949 47.989,30.934 m 5.343,15.866 c -33.124,11.153 -62.141,-8.687 -72.772,-40.253 -10.736,-31.884 0.472,-64.922 33.601,-76.075 33.124,-11.159 62.037,8.373 72.772,40.252 10.632,31.571 -0.477,64.918 -33.601,76.076 m 74.272,-45.536 36.882,-3.904 -10.459,-98.89 20.399,-2.159 10.458,98.896 37.045,-3.916 1.863,17.623 -94.325,9.972 z m 140.257,-111.491 79.869,5.826 -1.291,17.676 -59.407,-4.334 -7.237,99.178 -20.458,-1.49 z m 136.149,13.935 19.936,4.834 -27.627,113.865 -19.936,-4.839 z m 86.106,18.654 17.705,8.241 -36.359,78.102 0.45,0.209 84.707,-55.6 19.636,9.141 -49.443,106.225 -17.704,-8.243 36.426,-78.251 -0.299,-0.14 -84.926,55.68 -19.636,-9.14 z m 144.096,74.126 64.341,56.304 -11.672,13.334 -48.902,-42.792 -22.584,25.809 44.455,38.904 -11.023,12.598 -44.459,-38.903 -20.208,23.093 48.039,42.037 -11.67,13.335 -63.473,-55.545 z" /></g><g
           transform="translate(751.5596,1301.3652)"
           id="g36"><path
             id="path38"
             style="fill:#231f20;fill-opacity:1;fill-rule:nonzero;stroke:none"
             d="M 0,0 16.773,11.808 -9.109,48.576 16.382,66.521 c 27.378,19.272 20.326,40.398 11.922,52.342 -8.409,11.944 -26.11,25.969 -53.482,6.701 l -42.27,-29.758 z m -41.039,93.93 24.824,17.473 c 8.855,6.233 18.773,8.4 27.65,-4.212 8.505,-12.08 1.89,-22.352 -5.624,-27.645 L -18.745,62.26 Z m 140.525,18.645 c 10.181,-27.209 34.873,-32.029 60.083,-23.084 21.803,7.738 40.408,25.483 31.625,50.23 -4.17,11.753 -15.506,21.134 -31.484,20.517 -6.324,-0.327 -33.006,-2.658 -34.873,-2.799 -8.709,-0.477 -15.397,1.676 -18.195,9.563 -3.953,11.136 6.188,18.387 15.156,21.571 13.456,4.775 24.601,2.808 30.73,-11.035 l 19.331,6.86 c -8.173,23.043 -31.998,28.345 -54.886,20.227 -19.949,-7.083 -36.741,-24.534 -28.84,-46.804 4.061,-11.445 13.588,-21.122 34.369,-19.318 16.791,1.254 27.25,2.703 36.177,2.562 5.089,-0.108 10.935,-1.867 13.957,-10.372 2.907,-8.195 -0.418,-18.949 -17.428,-24.987 -15.465,-5.488 -30.407,-3.13 -36.386,13.73 z m 182.54,12.508 20.376,2.334 -5.238,45.65 35.404,75.753 -22.824,-2.621 -24.333,-55.649 -36.8,48.63 -23.643,-2.713 51.815,-65.739 z m 212.902,84.048 c -0.986,25.388 -20.499,41.452 -47.027,43.174 -34.878,2.262 -57.82,-24.365 -59.978,-57.607 -2.177,-33.574 17.15,-62.619 52.028,-64.882 28.331,-1.839 49.235,16.21 52.856,44.097 l -19.982,1.295 c -2.903,-16.915 -13.447,-29.876 -31.788,-28.686 -25.056,1.622 -34.101,24.41 -32.642,46.844 1.453,22.435 13.37,43.864 38.42,42.238 17.033,-1.108 25.083,-11.331 27.641,-25.146 z m 46.181,-85.034 19.727,-5.625 14.492,50.811 51.288,-14.624 -14.493,-50.816 19.727,-5.624 32.133,112.67 -19.726,5.63 -12.779,-44.819 -51.289,14.629 12.785,44.814 -19.726,5.629 z m 144.704,-45.736 18.432,-9.005 51.434,105.279 -18.432,9.005 z M 884.168,49.066 c 12.89,21.894 5.152,45.955 -16.241,61.737 -28.127,20.754 -61.82,10.74 -81.596,-16.064 -19.972,-27.073 -19.403,-61.955 8.723,-82.709 22.843,-16.85 50.188,-12.961 68.298,8.546 l -16.111,11.885 c -11.585,-12.657 -27.459,-17.873 -42.251,-6.96 -20.204,14.906 -15.502,38.967 -2.153,57.058 13.348,18.09 34.95,29.685 55.153,14.778 13.735,-10.135 14.984,-23.088 9.673,-36.095 z" /></g></g></g></g></svg>